<?xml version="1.0" encoding="iso-8859-1"?>
<!-- Generator: Adobe Illustrator 16.0.0, SVG Export Plug-In . SVG Version: 6.00 Build 0)  -->
<!DOCTYPE svg PUBLIC "-//W3C//DTD SVG 1.1//EN" "http://www.w3.org/Graphics/SVG/1.1/DTD/svg11.dtd">
<svg version="1.1" id="Layer_1" xmlns="http://www.w3.org/2000/svg" xmlns:xlink="http://www.w3.org/1999/xlink" x="0px" y="0px"
	 width="90px" height="90px" viewBox="0 0 90 90" style="enable-background:new 0 0 90 90;" xml:space="preserve">
<g>
	<rect x="24.085" y="28" style="fill:#0040FF;" width="41.83" height="4"/>
	<rect x="24.085" y="43" style="fill:#0040FF;" width="41.83" height="4"/>
	<rect x="24.085" y="58" style="fill:#0040FF;" width="41.83" height="4"/>
</g>
</svg>
