<?xml version="1.0" encoding="iso-8859-1"?>
<!-- Generator: Adobe Illustrator 16.0.0, SVG Export Plug-In . SVG Version: 6.00 Build 0)  -->
<!DOCTYPE svg PUBLIC "-//W3C//DTD SVG 1.1//EN" "http://www.w3.org/Graphics/SVG/1.1/DTD/svg11.dtd">
<svg version="1.1" id="Layer_1" xmlns="http://www.w3.org/2000/svg" xmlns:xlink="http://www.w3.org/1999/xlink" x="0px" y="0px"
	 width="207.644px" height="90px" viewBox="0 0 207.644 90" style="enable-background:new 0 0 207.644 90;" xml:space="preserve">
<g>
	<path style="fill:#32E032;" d="M21.701,25.029h5.245c0.267-1.356,0.692-2.715,1.259-4.043l-3.666-2.282
		C23.167,20.708,22.208,22.844,21.701,25.029"/>
	<path style="fill:#32E032;" d="M44.172,16.972l2.892,1.801l1.104-1.467l0.26-0.347c1.464-1.815,3.209-3.342,5.143-4.547
		C50.046,12.938,46.772,14.539,44.172,16.972"/>
	<path style="fill:#32E032;" d="M20.292,48.493c-0.277-0.339-0.546-0.683-0.802-1.033c-1.719-2.354-2.977-4.965-3.826-7.743
		c-0.762-2.49-1.196-5.113-1.346-7.8c-0.026-0.483-0.043-0.967-0.052-1.454c-0.004-0.229-0.013-0.455-0.013-0.683v-0.005v-1.844
		H9.902v1.849c0,8.547,2.23,16.137,8.635,20.854L3.937,70.07c0,0,3.502,0.844,3.897,0.924l14.933-19.88
		C21.859,50.291,21.042,49.412,20.292,48.493"/>
	<path style="fill:#008CF0;" d="M33.246,18.703c-0.375,0.547-0.709,1.106-1.022,1.672c-0.438,0.789-0.815,1.595-1.129,2.412
		c-0.283,0.74-0.513,1.486-0.687,2.242h5.244c0.268-1.356,0.692-2.715,1.26-4.041L33.246,18.703z"/>
	<path style="fill:#008CF0;" d="M60.498,12.773c-2.023,0.521-3.932,1.408-5.645,2.6c-0.355,0.247-0.713,0.492-1.051,0.766
		c-0.952,0.772-1.828,1.647-2.61,2.616l-0.038,0.052l-1.287,1.713l3.127,1.947l2.78-3.699l1.1-1.463l0.26-0.346
		c0.361-0.447,0.744-0.872,1.137-1.285c0.953-0.999,1.996-1.892,3.113-2.672c0.293-0.205,0.59-0.4,0.893-0.59
		C61.676,12.502,61.084,12.623,60.498,12.773"/>
	<path style="fill:#008CF0;" d="M28.886,48.436c-0.28-0.33-0.555-0.664-0.819-1.005c-1.388-1.782-2.558-3.71-3.485-5.748
		c-1.398-3.065-2.252-6.375-2.502-9.786c-0.008-0.09-0.017-0.178-0.022-0.267c-0.025-0.388-0.039-0.776-0.048-1.166v-0.001
		c-0.006-0.214-0.017-0.428-0.018-0.641c0-0.015-0.001-0.028-0.001-0.043v-1.849h-4.35v1.849c0,0.218,0.011,0.431,0.015,0.646
		c0.008,0.403,0.02,0.805,0.041,1.204c0.432,7.786,3.607,14.631,9.546,19.005l-0.176,0.235l-0.244,0.325l-2.517,3.35l-0.994,1.324
		L14.281,67.89l-0.859,1.146l-0.777,1.035l2.714,0.67c0.392,0.097,0.787,0.174,1.183,0.255l1.898-2.528l0.441-0.589l0.438-0.581
		l8.514-11.333l0.553-0.737l1.115-1.484l0.728-0.968l0.723-0.963l0.524-0.696C30.546,50.273,29.689,49.375,28.886,48.436"/>
	<path style="fill:#F83A48;" d="M70.971,27.931c-0.008-0.01-0.016-0.021-0.023-0.03c-0.014-0.014-0.025-0.029-0.039-0.041
		c-0.309-0.306-0.693-0.525-1.119-0.654c-0.248-0.075-0.508-0.129-0.781-0.129c-0.705,0-1.34,0.276-1.822,0.719
		c-0.047,0.044-0.096,0.088-0.141,0.136c-0.434,0.462-0.707,1.075-0.73,1.753c-0.002,0.033-0.01,0.064-0.01,0.098
		c0,0.887,0.434,1.668,1.096,2.16c0.236,0.178,0.502,0.311,0.791,0.402c0.014,0.005,0.029,0.01,0.045,0.016
		c0.246,0.072,0.502,0.125,0.771,0.125c0.777,0,1.471-0.332,1.963-0.854c0.457-0.484,0.742-1.132,0.742-1.849
		c0-0.109-0.02-0.213-0.033-0.317C71.611,28.873,71.359,28.342,70.971,27.931"/>
	<path style="fill:#F83A48;" d="M74.953,12.281c-0.455-0.035-0.912-0.07-1.375-0.07c-0.314,0-0.629,0.01-0.941,0.025
		c-1.168,0.062-2.314,0.25-3.432,0.537c-0.512,0.133-1.012,0.295-1.508,0.471c-0.977,0.349-1.918,0.787-2.818,1.301
		c-0.451,0.258-0.891,0.531-1.318,0.828c-0.355,0.248-0.713,0.492-1.053,0.766c-0.158,0.13-0.303,0.279-0.459,0.414
		c-0.17,0.148-0.338,0.298-0.502,0.453c-0.582,0.547-1.141,1.121-1.648,1.75l-0.039,0.05l-0.01,0.015l-5.646,7.516l-12.251-7.633
		c-0.375,0.547-0.709,1.106-1.022,1.672c-0.254,0.457-0.488,0.918-0.701,1.386c-0.154,0.34-0.297,0.683-0.428,1.026
		c-0.643,1.68-1.023,3.406-1.093,5.144H25.378v1.849c0,0.217,0.014,0.43,0.02,0.646C25.4,30.447,25.4,30.468,25.4,30.49
		c0.011,0.381,0.023,0.762,0.051,1.14c0.553,7.786,4.561,14.631,10.499,19.005L21.349,70.07l1.029,0.254l1.686,0.416
		c0.922,0.228,1.856,0.397,2.797,0.535c0.128,0.02,0.255,0.041,0.382,0.059c1.297,0.173,2.604,0.268,3.916,0.268
		c1.763,0,3.498-0.161,5.196-0.46c5.355-0.945,10.317-3.343,14.42-7.014c0.349-0.313,0.692-0.633,1.029-0.964
		c0.703-0.089,1.396-0.214,2.084-0.347c12.811-2.463,22.692-12.415,25.266-25.004c2.211-0.325,4.117-1.552,5.375-3.282
		c0.113-0.156,0.225-0.311,0.328-0.474c0.461-0.741,0.816-1.554,1.021-2.428h5.268v-1.851
		C91.146,20.557,83.998,12.986,74.953,12.281 M75.953,34.342c-0.006,0.064-0.014,0.127-0.021,0.189
		c-0.162,1.444-0.432,2.856-0.799,4.229c-1.535,5.702-4.785,10.703-9.199,14.39c-2.814,2.354-6.102,4.17-9.719,5.289
		c-1.547,0.48-3.155,0.836-4.811,1.048c-0.426,0.055-0.842,0.169-1.227,0.356c-0.001,0-0.003,0.001-0.005,0.002
		c-0.348,0.169-0.661,0.399-0.942,0.667c-0.012,0.011-0.025,0.02-0.037,0.031c-0.666,0.653-1.364,1.263-2.086,1.834
		c-2.569,2.034-5.467,3.542-8.57,4.462c-1.803,0.535-3.674,0.866-5.588,0.996c-0.594,0.041-1.189,0.067-1.79,0.067
		c-0.938,0-1.875-0.063-2.806-0.164c-0.063-0.007-0.127-0.012-0.189-0.019c-0.131-0.015-0.264-0.022-0.393-0.039l4.4-5.86
		c0.661-0.879,1.412-1.671,2.217-2.394c2.82-2.536,6.422-4.069,10.195-4.2h0.006h6.524c0-0.641-0.183-1.233-0.48-1.754
		c-0.016-0.027-0.028-0.056-0.044-0.082c-0.238-0.418-0.619-0.795-1.096-1.091c-0.51-0.318-1.124-0.544-1.792-0.623
		c-9.042-1.468-16.272-8.414-18.147-17.313c-0.298-1.408,0.788-2.733,2.228-2.733H59.41c0-0.845-0.289-1.617-0.768-2.236
		c-0.225-0.287-0.488-0.539-0.785-0.751c-0.105-0.074-0.209-0.148-0.32-0.212l0.023-0.004l-0.219-0.136l5.445-7.226
		c0.57-0.702,1.203-1.341,1.887-1.911c0.064-0.055,0.135-0.101,0.199-0.154c0.141-0.112,0.285-0.221,0.43-0.327
		c0.898-0.668,1.869-1.226,2.898-1.657v0.001l0.002-0.001c0.342-0.145,0.686-0.279,1.039-0.395c0.33-0.109,0.668-0.205,1.008-0.289
		c0.23-0.057,0.463-0.098,0.695-0.144c0.244-0.047,0.486-0.102,0.734-0.136c0.318,0.503,0.615,1.018,0.902,1.537
		c0.195,0.352,0.373,0.712,0.551,1.07c0.455,0.914,0.877,1.842,1.23,2.793c0.771,2.084,1.281,4.256,1.545,6.478
		c0.064,0.545,0.119,1.092,0.152,1.644c0.035,0.567,0.061,1.135,0.061,1.709C76.121,32.316,76.061,33.336,75.953,34.342
		 M79.639,27.931h-0.014c-0.096-0.931-0.238-1.853-0.416-2.767c-0.486-2.524-1.268-4.976-2.344-7.31
		c-0.139-0.297-0.098-0.599,0.043-0.838c0.197-0.335,0.6-0.542,1.037-0.396c1.203,0.398,2.33,0.961,3.361,1.656
		c3.217,2.166,5.48,5.637,6.018,9.653H79.639z"/>
	<path style="fill:#F83A48;" d="M102.512,40.322c-2.352,0-4.203,0.662-5.553,1.985c-1.35,1.322-2.025,3.12-2.025,5.392v2.306h-3.547
		v4.31h3.547v23.475c2.615,0,4.959-1.746,5.576-4.287c0.307-1.253,0.457-2.53,0.457-3.831V54.314h5.172v-4.31h-5.172V47.66
		c0-1.016,0.258-1.791,0.773-2.325c0.514-0.535,1.238-0.802,2.176-0.802c0.828,0,1.855,0.207,3.086,0.621l1.502-3.488
		c-1.174-0.495-2.215-0.842-3.117-1.042C104.486,40.422,103.527,40.322,102.512,40.322"/>
	<path style="fill:#F83A48;" d="M112.225,40.644h-2.156v30.872h6.154V44.641C116.223,42.434,114.434,40.644,112.225,40.644"/>
	<path style="fill:#F83A48;" d="M131.52,49.504c-3.529,0-6.236,0.967-8.119,2.896c-1.887,1.932-2.826,4.702-2.826,8.31
		c0,3.622,0.947,6.405,2.846,8.349c1.898,1.945,4.596,2.916,8.1,2.916c3.541,0,6.254-0.974,8.139-2.926
		c1.883-1.951,2.826-4.729,2.826-8.339c0-3.607-0.943-6.378-2.826-8.31C137.773,50.471,135.061,49.504,131.52,49.504 M131.52,67.325
		c-3.17,0-4.752-2.206-4.752-6.615c0-4.411,1.582-6.609,4.752-6.595c3.18-0.015,4.77,2.184,4.77,6.595
		C136.289,65.119,134.699,67.325,131.52,67.325"/>
	<path style="fill:#F83A48;" d="M157.098,67.246c-1.871,0-3.305-0.569-4.301-1.705c-0.994-1.136-1.492-2.746-1.492-4.831
		c0-2.098,0.484-3.722,1.453-4.871c0.969-1.148,2.342-1.725,4.119-1.725c1.363,0,2.773,0.382,4.23,1.143l1.363-4.069
		c-1.965-1.015-4.043-1.522-6.234-1.522c-3.541,0-6.283,0.964-8.219,2.896c-1.939,1.932-2.908,4.648-2.908,8.149
		c0,3.595,0.943,6.349,2.828,8.259c1.883,1.911,4.602,2.867,8.158,2.867c1.041,0,2.139-0.12,3.289-0.361
		c1.146-0.239,2.217-0.581,3.207-1.022l-0.984-4.189C160.139,66.917,158.635,67.246,157.098,67.246"/>
	<path style="fill:#F83A48;" d="M168.475,40.523h-2.176v30.991h6.174V44.52C172.473,42.313,170.684,40.523,168.475,40.523"/>
	<polygon style="fill:#F83A48;" points="186.225,50.005 179.691,50.005 172.873,59.567 180.631,71.515 187.488,71.515 
		179.287,59.366 	"/>
	<path style="fill:#F83A48;" d="M202.805,66.743c-0.963,0.335-1.865,0.503-2.707,0.503c-0.99,0-1.686-0.234-2.094-0.702
		c-0.408-0.469-0.613-1.25-0.613-2.346v-9.883h5.875v-4.31h-5.875v-6.155h-4.531l-1.182,6.155h-3.949v4.31h3.549V65.06
		c0,4.518,2.363,6.776,7.096,6.776c1.695,0,3.475-0.38,5.334-1.144L202.805,66.743z"/>
</g>
</svg>
